{
  "api": {
    "ioiotvvelimir": {
      "dependsOn": [
        {
          "attributes": ["UserPoolId"],
          "category": "auth",
          "resourceName": "ioiotvvelimir23e8cbca"
        }
      ],
      "output": {
        "authConfig": {
          "additionalAuthenticationProviders": [],
          "defaultAuthentication": {
            "authenticationType": "AMAZON_COGNITO_USER_POOLS",
            "userPoolConfig": {
              "userPoolId": "authioiotvvelimir23e8cbca"
            }
          }
        }
      },
      "providerPlugin": "awscloudformation",
      "service": "AppSync"
    }
  },
  "auth": {
    "ioiotvvelimir23e8cbca": {
      "customAuth": false,
      "dependsOn": [],
      "frontendAuthConfig": {
        "mfaConfiguration": "OFF",
        "mfaTypes": ["SMS"],
        "passwordProtectionSettings": {
          "passwordPolicyCharacters": [],
          "passwordPolicyMinLength": 8
        },
        "signupAttributes": ["EMAIL"],
        "socialProviders": [],
        "usernameAttributes": ["EMAIL"],
        "verificationMechanisms": ["EMAIL"]
      },
      "providerPlugin": "awscloudformation",
      "service": "Cognito"
    }
  },
  "storage": {
    "IOIOTVVideos": {
      "dependsOn": [],
      "providerPlugin": "awscloudformation",
      "service": "S3"
    }
  }
}
