<?xml version="1.0" encoding="iso-8859-1"?>
<!-- Generator: Adobe Illustrator 19.0.0, SVG Export Plug-In . SVG Version: 6.00 Build 0)  -->
<svg version="1.1" id="Layer_1" xmlns="http://www.w3.org/2000/svg" xmlns:xlink="http://www.w3.org/1999/xlink" x="0px" y="0px"
	 viewBox="0 0 512 512" style="enable-background:new 0 0 512 512;" xml:space="preserve">
<circle style="fill:#FFC91B;" cx="256" cy="256" r="256"/>
<path style="fill:#D48B07;" d="M510.602,282.839L369.881,142.119L120.177,390.97l119.487,120.498
	C245.067,511.807,250.511,512,256,512C388.32,512,497.185,411.608,510.602,282.839z"/>
<path style="fill:#121149;" d="M118.044,388.82l5.136,5.136c8.416,8.416,22.059,8.416,30.475,0l110.54-110.54
	c8.416-8.416,8.416-22.059,0-30.475l-5.136-5.136c-8.416-8.416-22.059-8.416-30.475,0l-110.54,110.54
	C109.628,366.761,109.628,380.406,118.044,388.82z"/>
<path style="fill:#0A0A33;" d="M260.767,249.511L119.751,390.527l3.429,3.429c8.416,8.416,22.059,8.416,30.475,0l110.54-110.54
	c8.414-8.416,8.414-22.059,0-30.475L260.767,249.511z"/>
<circle style="fill:#273B7A;" cx="296.529" cy="215.471" r="103.745"/>
<path style="fill:#121149;" d="M369.881,142.119c-0.29-0.29-0.591-0.555-0.883-0.84l-146.67,146.67
	c0.284,0.291,0.552,0.595,0.84,0.883c40.513,40.513,106.199,40.513,146.713,0S410.395,182.632,369.881,142.119z"/>
<circle style="fill:#71E2EF;" cx="296.529" cy="215.471" r="77.555"/>
<path style="fill:#38C6D9;" d="M351.365,160.635c-0.29-0.29-0.591-0.557-0.883-0.84L240.847,269.431
	c0.284,0.293,0.552,0.595,0.84,0.883c30.287,30.287,79.391,30.287,109.678,0C381.652,240.026,381.652,190.923,351.365,160.635z"/>
<g>
</g>
<g>
</g>
<g>
</g>
<g>
</g>
<g>
</g>
<g>
</g>
<g>
</g>
<g>
</g>
<g>
</g>
<g>
</g>
<g>
</g>
<g>
</g>
<g>
</g>
<g>
</g>
<g>
</g>
</svg>
