{
  "dev": {
    "awscloudformation": {
      "AuthRoleName": "amplify-ioiotvvelimir-dev-175750-authRole",
      "UnauthRoleArn": "arn:aws:iam::265861987713:role/amplify-ioiotvvelimir-dev-175750-unauthRole",
      "AuthRoleArn": "arn:aws:iam::265861987713:role/amplify-ioiotvvelimir-dev-175750-authRole",
      "Region": "us-east-2",
      "DeploymentBucketName": "amplify-ioiotvvelimir-dev-175750-deployment",
      "UnauthRoleName": "amplify-ioiotvvelimir-dev-175750-unauthRole",
      "StackName": "amplify-ioiotvvelimir-dev-175750",
      "StackId": "arn:aws:cloudformation:us-east-2:265861987713:stack/amplify-ioiotvvelimir-dev-175750/e8b0fd70-81ae-11ee-8a1d-06f829a2e6a3",
      "AmplifyAppId": "dq0n6ownlju0d"
    },
    "categories": {
      "auth": {
        "ioiotvvelimir23e8cbca": {}
      },
      "api": {
        "ioiotvvelimir": {}
      },
      "storage": {
        "IOIOTVVideos": {}
      }
    }
  }
}
